{"type":"split","show":{"tags":false,"location":false,"time":false,"date":false},"context":{"tags":[],"file":false,"time":1493756035443,"location":{"filename":"steambot.js","line":155}},"args":{"0":" ________________"},"contextString":"","argsString":" ________________","message":" ________________"}
{"type":"split","show":{"tags":false,"location":false,"time":false,"date":false},"context":{"tags":[],"file":false,"time":1493756035443,"location":{"filename":"steambot.js","line":156}},"args":{"0":"| Next Step Here |"},"contextString":"","argsString":"| Next Step Here |","message":"| Next Step Here |"}
{"type":"split","show":{"tags":false,"location":false,"time":false,"date":false},"context":{"tags":[],"file":false,"time":1493756035444,"location":{"filename":"steambot.js","line":157}},"args":{"0":"|________________|"},"contextString":"","argsString":"|________________|","message":"|________________|"}
{"type":"split","show":{"tags":false,"location":false,"time":false,"date":false},"context":{"tags":[],"file":false,"time":1493756045446,"location":{"filename":"steambot.js","line":155}},"args":{"0":" ________________"},"contextString":"","argsString":" ________________","message":" ________________"}
{"type":"split","show":{"tags":false,"location":false,"time":false,"date":false},"context":{"tags":[],"file":false,"time":1493756045447,"location":{"filename":"steambot.js","line":156}},"args":{"0":"| Next Step Here |"},"contextString":"","argsString":"| Next Step Here |","message":"| Next Step Here |"}
{"type":"split","show":{"tags":false,"location":false,"time":false,"date":false},"context":{"tags":[],"file":false,"time":1493756045447,"location":{"filename":"steambot.js","line":157}},"args":{"0":"|________________|"},"contextString":"","argsString":"|________________|","message":"|________________|"}
